…
    ## Rows: 35 Columns: 1443
    ## ── Column specification ────────────────────────────────────────────────────────
    ## Delimiter: ","
    ## chr    (1): day
    ## dbl (1442): week, day_id, activity.1, activity.2, activity.3, activity.4, ac...
    ## 
    ## ℹ Use `spec()` to retrieve the full column specification for this data.
    ## ℹ Specify the column types or set `show_col_types = FALSE` to quiet this message.

``` r
accel_data
```

    ## # A tibble: 50,400 × 7
    ##     week day_id day    minute activity_count if_weekend  hour
    ##    <dbl>  <dbl> <fct>   <dbl>          <dbl> <chr>      <int>
    ##  1     1      1 Friday      1           88.4 weekday        1
    ##  2     1      1 Friday      2           82.2 weekday        1
    ##  3     1      1 Friday      3           64.4 weekday        1
    ##  4     1      1 Friday      4           70.0 weekday        1
    ##  5     1      1 Friday      5           75.0 weekday        1
    ##  6     1      1 Friday      6           66.3 weekday        1
    ##  7     1      1 Friday      7           53.8 weekday        1
    ##  8     1      1 Friday      8           47.8 weekday        1
    ##  9     1      1 Friday      9           55.5 weekday        1
    ## 10     1      1 Friday     10           43.0 weekday        1
    ## # … with 50,390 more rows
…
``` r
total_activity_summary = accel_data %>%
  group_by(week, day) %>%
  summarize(total_activity = sum(activity_count)) 
```

    ## `summarise()` has grouped output by 'week'. You can override using the
    ## `.groups` argument.

``` r
total_activity_summary
```

    ## # A tibble: 35 × 3
    ## # Groups:   week [5]
    ##     week day       total_activity
    ##    <dbl> <fct>              <dbl>
    ##  1     1 Sunday           631105 
    ##  2     1 Monday            78828.
    ##  3     1 Tuesday          307094.
    ##  4     1 Wednesday        340115.
    ##  5     1 Thursday         355924.
    ##  6     1 Friday           480543.
    ##  7     1 Saturday         376254 
    ##  8     2 Sunday           422018 
    ##  9     2 Monday           295431 
    ## 10     2 Tuesday          423245 
    ## # … with 25 more rows
…
``` r
hourly_accel_data = accel_data %>%
  #filter(day %in% c("Saturday", "Friday") & week %in% c(1,2,3)) %>%
  group_by(week, day, hour) %>%
  summarize(total_activity_min = sum(activity_count)) 
```

    ## `summarise()` has grouped output by 'week', 'day'. You can override using the
    ## `.groups` argument.

``` r
hourly_accel_data
```

    ## # A tibble: 840 × 4
    ## # Groups:   week, day [35]
    ##     week day     hour total_activity_min
    ##    <dbl> <fct>  <int>              <dbl>
    ##  1     1 Sunday     1               1084
    ##  2     1 Sunday     2                614
    ##  3     1 Sunday     3               7766
    ##  4     1 Sunday     4              20625
    ##  5     1 Sunday     5              11380
    ##  6     1 Sunday     6               1057
    ##  7     1 Sunday     7                290
    ##  8     1 Sunday     8              16756
    ##  9     1 Sunday     9              37128
    ## 10     1 Sunday    10              60013
    ## # … with 830 more rows
…
